module github.com/johnsonjh/gfcptun

go 1.21

require (
	github.com/golang/snappy v0.0.5-0.20231225225746-43d5d4cd4e0e
	github.com/johnsonjh/gfcp v0.0.0-20241220125945-66033b5f4dbf
	github.com/johnsonjh/gfsmux v0.0.0-20241023184052-a3dc21771709
	github.com/pkg/errors v0.9.2-0.20201214064552-5dd12d0cfe7f
	github.com/urfave/cli v1.22.16
	github.com/xtaci/tcpraw v1.2.31
)

require (
	github.com/coreos/go-iptables v0.7.0 // indirect
	github.com/cpuguy83/go-md2man/v2 v2.0.6 // indirect
	github.com/google/gopacket v1.1.19 // indirect
	github.com/klauspost/cpuid/v2 v2.2.10-0.20241128153506-78c3c03144af // indirect
	github.com/klauspost/reedsolomon v1.12.4 // indirect
	github.com/russross/blackfriday/v2 v2.1.0 // indirect
	go4.org v0.0.0-20230225012048-214862532bf5 // indirect
	golang.org/x/net v0.33.0 // indirect
	golang.org/x/sys v0.28.1-0.20241217161349-a7f19e9c2041 // indirect
)
